{
  "backgrounds": [
    {
      "tile": "sky",
      "ranges": [[0, 25, 0, 14]]
    },
    {
      "comments": "This is a comment",
      "tile": "ground",
      "ranges 1 - comments": "Format for the property is [xStart, xEnd, yStart, yEnd]",
      "ranges 2 - comments": "The X-axis has 16*25 = 400 bits of gameboard in the level.",
      "ranges 3 - comments": "25 Tiles at 16 bits per Tile.",
      "ranges 4 - comments": "However, they can be defined outside what weve hardcoed and",
      "ranges 5 - comments": "weve hardcoded Nintendo dimensions (I think) of 16*16=256.",
      "ranges 6 - comments": "Last 4 are for debugging purposes.",
      "ranges": [
        [ 0, 25, 12, 14 ],
        [ 5, 8, 9, 10 ],
        [ 12, 18, 11, 12 ],
        [ 2, 3, 11, 12 ],
        [ 10, 12, 10, 11],
        [ 9, 10, 0, 7],

        [15, 16, 0, 1],
        [0, 1, 0, 1],
        [0, 1, 13, 14],
        [15, 16, 13, 14]
      ]
    }
  ]
}

